1 10 20
100 200 125
201 210 89
900 1000 174
61582 54744 335
55604 80837 351
86479 34436 351
65998 89765 351
2662 47566 324
14382 35499 311
10801 18230 279
84297 18678 351
7874 75257 340
96402 32527 351
55733 95099 351
23859 6879 282
70168 11844 340
46479 70674 340
49174 22762 324
24802 90896 351
18347 89017 351
3541 88085 351
54161 48768 340
47873 78071 351
89735 51072 351
22491 94319 351
89214 46854 351
46127 85476 351
11959 35684 324
82626 32073 351
91258 1813 351
71046 79033 351
13169 57706 340
88689 29424 351
2314 65699 340
54198 47382 340
68658 94293 351
13050 53516 340
43367 72003 340
85868 87472 333
91245 12033 351
14844 4975 276
41327 83013 351
90116 28685 351
1123 45429 324
14311 38876 324
50999 40211 314
31424 70468 340
94920 33114 351
38320 61215 340
64165 35849 340
90187 62858 351
51330 37598 314
80851 95962 333
70225 52937 335
83903 76850 351
45964 89070 351
42413 8415 324
4488 16214 276
21002 76037 340
6350 39000 324
72876 48287 340
26447 90305 351
30820 16590 308
13715 61429 340
77335 96823 338
20723 89114 351
37796 90484 351
41854 2454 324
13787 40208 324
69709 34580 340
69280 21709 340
17552 1807 276
51265 99357 351
63741 64830 299
80099 55593 351
11145 25920 282
70542 16439 340
66312 99540 351
38073 10203 324
90713 71243 351
58393 9089 340
79520 79508 170
64832 16561 340
83613 23280 351
24332 20916 282
57175 75026 335
83211 63588 351
56064 63483 335
56873 90883 351
43242 58674 340
8709 13733 276
77329 92139 338
35401 21505 311
49436 846 324
68888 82042 351
58543 27207 340
56117 32829 340
35703 54806 340
90836 15641 351
56493 53786 322
78840 44710 351
97531 13042 351
486 38293 324
63190 17606 340
8051 85081 351
96795 51742 351
38071 47427 314
39369 7682 324
77216 26741 351
83063 27307 351
59648 24713 340
49605 57134 340
62199 42120 340
13371 70947 340
48515 27373 324
98946 2691 351
93865 91900 315
21654 81960 351
2026 40835 324
51086 4630 324
60639 58393 317
61849 23940 340
42248 33370 324
5448 3320 238
3880 91310 351
46774 91727 351
61361 3002 340
22718 1109 279
17630 81516 351
49151 59835 340
96366 83245 333
5397 1311 238
87848 71028 351
8327 34878 311
97792 40426 351
16542 60178 340
63965 65344 299
19193 95737 351
38589 99999 351
15600 61338 340
952 34063 308
37618 51640 314
61709 3045 340
36337 70149 340
23228 47502 324
37918 95012 351
42641 44282 270
32028 39631 324
98640 94057 328
85265 29820 351
35217 97171 351
95214 63089 351
64194 59697 335
