1 10 20
100 200 125
201 210 89
900 1000 174
981383 396931 525
101133 295441 443
981105 618458 525
62757 489653 449
424582 375925 449
305460 565095 470
815799 735872 468
996582 544720 525
163668 691943 509
905717 426277 525
696035 647462 442
753782 849083 525
776976 296765 509
727027 291441 509
148838 759470 509
705639 494878 509
49198 736137 509
859990 567691 525
844732 771824 525
278531 494572 449
218107 852716 525
903176 955468 507
857809 631143 525
532886 559502 452
193511 169429 365
687009 206892 509
499967 5089 449
600580 582573 434
297387 944205 525
266492 782355 509
708775 15070 509
566656 729900 509
693355 839192 525
73695 712751 509
514155 983876 525
760395 733428 424
988985 756545 525
789300 516635 509
690574 683850 398
164592 329904 443
645413 93478 509
239999 918671 525
409710 708437 509
675043 478679 509
360543 307887 441
401088 407461 405
478066 868570 525
707915 753062 424
933932 390525 525
921179 456889 525
813578 23142 509
717527 557893 509
926553 27890 525
346240 356269 379
573990 237155 470
801314 877831 525
961294 56669 525
948831 300893 525
408473 931636 525
482124 811276 509
761726 721616 424
302369 691657 509
995056 601060 525
413956 540186 470
460418 782580 509
144055 812815 509
673752 653147 442
36266 368157 443
465992 599104 470
323084 46986 443
324584 94527 443
729129 203731 509
544184 319191 470
79174 37966 351
730777 999043 525
691768 77891 509
512421 183919 470
625749 860915 525
654961 896598 525
940952 233737 525
933360 589654 525
650044 402761 509
280171 605420 470
568955 484127 470
613754 580873 434
602014 378366 470
669797 926203 525
994331 172274 525
800879 566501 509
158847 326683 443
688729 886290 525
385620 173936 443
466944 201711 449
757744 128083 509
589336 323425 470
448349 936486 525
118530 986852 525
191748 763873 509
470504 443462 444
402064 630858 509
796910 200256 509
560973 897767 525
801432 489559 509
432307 992039 525
544806 168209 470
248396 640996 509
19522 111593 354
697037 424792 509
230794 1335 443
988324 553687 525
815020 99956 509
216921 683686 509
965791 913883 507
122147 893031 525
553140 546377 452
675991 781138 504
837251 662191 504
806760 812367 406
243320 747187 509
854264 373019 525
987780 425406 525
730879 749711 424
1 999999 525
874263 275466 525
264079 648136 509
524563 710445 509
398300 200964 443
725715 794055 468
548911 669784 509
654391 345018 509
431784 813020 509
440962 498680 444
477725 620542 470
532798 80552 470
60198 455146 449
592147 792319 509
663001 861850 525
906369 960107 507
800878 367940 509
194309 93782 383
124637 189646 383
1 1 1
402745 606503 470
558038 856675 525
921665 937129 476
255155 885444 525
122749 56828 354
550408 638458 509
547839 657833 509
789934 892950 525
