1 10 20
100 200 125
201 210 89
900 1000 174
371253 371253 87
385737 385737 131
402922 402922 237
312275 312275 128
958473 958473 78
470534 470534 108
705415 705415 199
411244 411244 206
233005 233005 169
371154 371154 211
989703 989703 122
512097 512097 103
626479 626479 54
389255 389255 224
610875 610875 59
143653 143653 96
936098 936098 202
465742 465742 139
189811 189811 179
99601 99601 160
582739 582739 178
229972 229972 37
95116 95116 54
100678 100678 111
33694 33694 68
239063 239063 182
592273 592273 191
841390 841390 106
644425 644425 124
251591 251591 89
328417 328417 185
945302 945302 78
553347 553347 139
219233 219233 187
598043 598043 266
731692 731692 137
928332 928332 78
342418 342418 110
717497 717497 75
962944 962944 47
616622 616622 54
927058 927058 114
983900 983900 140
475218 475218 77
926241 926241 114
632598 632598 129
496750 496750 214
344286 344286 167
71311 71311 325
564747 564747 85
302649 384370 441
386694 980761 525
269276 806796 509
916194 646455 525
990631 832677 525
763202 896041 525
976052 295379 525
772893 986099 525
704040 908480 525
643819 635763 416
56483 551100 470
614717 388036 470
511821 98422 449
344125 882600 525
723808 683696 504
248334 118123 443
161835 547124 470
631829 565245 509
477214 522282 470
506957 544909 470
734603 322499 509
531476 327734 470
799422 256014 509
247388 513301 470
764555 900434 525
993437 297379 525
832755 626227 509
424340 248478 449
395639 141586 443
823638 297875 509
674758 922174 525
938182 746630 525
849440 689184 525
43746 975556 525
708383 27809 509
489501 320040 449
892172 830587 525
979669 833018 525
755723 370698 509
799268 488426 509
996188 114597 525
354931 501116 449
506355 774414 509
627074 656899 429
819809 978176 525
571280 346157 470
961165 951789 414
492851 55675 449
876052 139867 525
479577 13040 449
563332 839074 525
397551 867813 525
308127 142095 443
679245 488844 509
620081 243235 470
499360 420003 444
309561 715794 509
717814 199642 509
564882 963002 525
53537 905675 525
66682 694572 509
690334 61689 509
660974 500281 509
429795 139001 449
198051 946345 525
763974 404554 509
65772 23491 340
988970 605912 525
305295 263839 407
876720 768370 525
524335 615682 452
292823 924515 525
516916 628917 509
68025 950024 525
860333 241092 525
290953 839418 525
725946 522601 509
250334 623302 470
734390 150203 509
240838 861167 525
920924 970269 507
835664 322082 509
931355 227864 525
627236 367849 509
351211 980179 525
53016 132842 354
454667 780539 509
556328 607718 434
19843 768631 509
158785 629444 509
539890 604199 452
178097 201715 365
22229 425683 449
968168 962794 414
116713 548551 470
786696 730502 468
629487 772976 504
88097 172767 383
854462 177675 525
112422 166783 383
